Visualize Population Pyramids Aggregated by Age • apyramid
…
Pre-aggregated data

{apyramid} can also be used to visualize pre-aggregated data. This example is the US census data from 2018:

us_labels <- labs(
  x = "Age group", 
  y = "Thousands of people", 
  title = "US Cenus Data 2018",
  caption = "source: https://census.gov/data/tables/2018/demo/age-and-sex/2018-age-sex-composition.html")
data(us_2018)
us_2018
#> # A tibble: 36 x 4
#>    age   gender count percent
#>    <fct> <fct>  <int>   <dbl>
#>  1 <5    male   10193     6.4
#>  2 <5    female  9736     5.9
#>  3 5-9   male   10338     6.5
#>  4 5-9   female  9905     6  
#>  5 10-14 male   10607     6.7
#>  6 10-14 female 10204     6.2
#>  7 15-19 male   10617     6.7
#>  8 15-19 female 10291     6.2
#>  9 20-24 male   10809     6.8
#> 10 20-24 female 10625     6.4
#> # … with 26 more rows
…
